\relax 
\providecommand\hyper@newdestlabel[2]{}
\providecommand\HyperFirstAtBeginDocument{\AtBeginDocument}
\HyperFirstAtBeginDocument{\ifx\hyper@anchor\@undefined
\global\let\oldcontentsline\contentsline
\gdef\contentsline#1#2#3#4{\oldcontentsline{#1}{#2}{#3}}
\global\let\oldnewlabel\newlabel
\gdef\newlabel#1#2{\newlabelxx{#1}#2}
\gdef\newlabelxx#1#2#3#4#5#6{\oldnewlabel{#1}{{#2}{#3}}}
\AtEndDocument{\ifx\hyper@anchor\@undefined
\let\contentsline\oldcontentsline
\let\newlabel\oldnewlabel
\fi}
\fi}
\global\let\hyper@last\relax 
\gdef\HyperFirstAtBeginDocument#1{#1}
\providecommand\HyField@AuxAddToFields[1]{}
\providecommand\HyField@AuxAddToCoFields[2]{}
\babel@aux{english}{}
\newlabel{lbl:paper1}{{I}{v}{\listofpapersname }{Item.1}{}}
\newlabel{lbl:paper2}{{II}{v}{\listofpapersname }{Item.2}{}}
\newlabel{lbl:paper3}{{III}{v}{\listofpapersname }{Item.3}{}}
\citation{Aad:2012tfa}
\citation{Higgs:1964pj}
\citation{Jaffe:2000ne}
\citation{Rattazzi:2008pe}
\citation{Gervais:1971ji,Golfand:1971iw}
\citation{tHooft:1979rat}
\@writefile{toc}{\contentsline {chapter}{\numberline {1}Introduction}{9}{chapter.1}}
\citation{Witten:1981nf}
\citation{Atiyah:1984px}
\citation{berline1982classes}
\citation{Witten:1982im}
\citation{Witten:1988ze}
\citation{Nekrasov2003a}
\citation{Losev:1997hx,Losev:1997tp,Moore:1997dj,Lossev:1997bz}
\citation{Pestun:2016zxk}
\citation{Hama:2012bg,Pestun:2014mja}
\citation{Minahan:2015jta,Kapustin:2009kz,Benini:2012ui,Doroud:2012xw,Kallen:2012va,Kallen:2012cs,Kim:2012ava,Hama:2011ea,Minahan:2015any,Qiu:2013pta}
\citation{Rocen:2018xwo,Iakovidis:2020znp}
\citation{Dedushenko:2016jxl,Pan:2017zie}
\citation{Beem:2013sza}
\citation{Witten:1988ze}
\citation{Donaldson:1990kn}
\citation{Festuccia:2018rew}
\@writefile{toc}{\contentsline {section}{\numberline {1.1}Thesis outline}{11}{section.1.1}}
\citation{Nakahara}
\citation{dasilva}
\citation{Schmude:2014lfa,Sparks:2010sn}
\@writefile{toc}{\contentsline {part}{Part~I:~Review of geometry}{13}{part.1}}
\newlabel{part:geometry}{{I}{13}{Review of geometry}{part.1}{}}
\citation{dasilva}
\@writefile{toc}{\contentsline {chapter}{\numberline {2}Symplectic and toric geometry}{15}{chapter.2}}
\newlabel{sec:symplecticgeometry}{{2}{15}{Symplectic and toric geometry}{chapter.2}{}}
\newlabel{eq:hamiltonianfunction}{{2.1}{15}{Symplectic and toric geometry}{equation.2.0.1}{}}
\citation{Atiyah82}
\citation{Martelli:2008rt}
\newlabel{eq:Dolbeault}{{2.6}{16}{Symplectic and toric geometry}{equation.2.0.6}{}}
\newlabel{eq:momentmap}{{2.7}{16}{Symplectic and toric geometry}{equation.2.0.7}{}}
\newlabel{eq:symplecticquotient}{{2.8}{16}{Symplectic and toric geometry}{equation.2.0.8}{}}
\citation{fulton}
\newlabel{subsec:examplesymplectic}{{2}{17}{Example}{section*.3}{}}
\newlabel{eq:killingflat}{{2.11}{17}{Example}{equation.2.0.11}{}}
\newlabel{eq:torusactiontn}{{2.16}{18}{Example}{equation.2.0.16}{}}
\newlabel{eq:cnmomentmap}{{2.17}{18}{Example}{equation.2.0.17}{}}
\citation{Blair2010}
\citation{Geiges}
\citation{etnyre}
\@writefile{toc}{\contentsline {chapter}{\numberline {3}Contact geometry}{19}{chapter.3}}
\newlabel{sec:constactgeometry}{{3}{19}{Contact geometry}{chapter.3}{}}
\newlabel{eq:defcontactreeb}{{3.1}{19}{Contact geometry}{equation.3.0.1}{}}
\newlabel{eq:contactprojectors}{{3.6}{19}{Contact geometry}{equation.3.0.6}{}}
\citation{dasilva}
\citation{Sparks:2010sn}
\newlabel{eq:decompositionforms}{{3.7}{20}{Contact geometry}{equation.3.0.7}{}}
\newlabel{eq:contactfulldecompostition}{{3.8}{20}{Contact geometry}{equation.3.0.8}{}}
\@writefile{toc}{\contentsline {section}{\numberline {3.1}Toric Sasaki-Einstein manifolds}{20}{section.3.1}}
\newlabel{sec:toricsasakieinsteinintro}{{3.1}{20}{Toric Sasaki-Einstein manifolds}{section.3.1}{}}
\@writefile{lof}{\contentsline {figure}{\numberline {3.1}{\ignorespaces Examples of moment map cones together with the polytopes of the odd-spheres (blue filling).}}{21}{section*.4}}
\providecommand*\caption@xref[2]{\@setref\relax\@undefined{#1}}
\newlabel{figurespheres}{{3.1}{21}{Example}{section*.4}{}}
\citation{Winding:2016wpw}
\citation{Cartan}
\citation{Pestun:2016qko}
\citation{Pestun:2016qko}
\@writefile{toc}{\contentsline {chapter}{\numberline {4}Equivariant cohomology}{23}{chapter.4}}
\newlabel{sec:equivariantcohomology}{{4}{23}{Equivariant cohomology}{chapter.4}{}}
\newlabel{eq:polyform}{{4.1}{23}{Equivariant cohomology}{equation.4.0.1}{}}
\newlabel{eq:eqdifdef}{{4.2}{23}{Equivariant cohomology}{equation.4.0.2}{}}
\newlabel{eq:easytranformation}{{4.7}{24}{Supersymmetric example}{equation.4.0.7}{}}
\citation{Pestun:2016zxk}
\citation{Cremonesi:2014dva}
\@writefile{toc}{\contentsline {part}{Part~II:~Localization technique}{25}{part.2}}
\newlabel{part:localization}{{II}{25}{Localization technique}{part.2}{}}
\citation{Pestun:2016jze}
\@writefile{toc}{\contentsline {chapter}{\numberline {5}Finite dimensional integrals}{27}{chapter.5}}
\newlabel{Sec:generalloc}{{5}{27}{Finite dimensional integrals}{chapter.5}{}}
\newlabel{loc:atiya-bott}{{5.1}{27}{Finite dimensional integrals}{equation.5.0.1}{}}
\newlabel{loc:math-original-action}{{5.4}{27}{Finite dimensional integrals}{equation.5.0.4}{}}
\newlabel{loc:math-deformed-action}{{5.5}{27}{Finite dimensional integrals}{equation.5.0.5}{}}
\citation{Atiyah:1984px}
\citation{Pestun:2007rz}
\newlabel{eq:localizationformulasubmanifold}{{5.15}{29}{Finite dimensional integrals}{equation.5.0.15}{}}
\@writefile{toc}{\contentsline {chapter}{\numberline {6}Infinite dimensional integrals}{30}{chapter.6}}
\newlabel{sec:localizationgaugetheories}{{6}{30}{Infinite dimensional integrals}{chapter.6}{}}
\newlabel{eq:deftermgeneral}{{6.3}{30}{Infinite dimensional integrals}{equation.6.0.3}{}}
\citation{Kapustin:2009kz}
\citation{Kim:2012ava}
\citation{Gorantis:2017vzz}
\citation{Atiyah:1984px}
\citation{Qiu:2014oqa}
\newlabel{eq:generallocgauge}{{6.6}{31}{Infinite dimensional integrals}{equation.6.0.6}{}}
\citation{Minahan:2015jta}
\@writefile{toc}{\contentsline {part}{Part~III:~$N=1$ super Yang Mills in 7d on Sasaki-Einstein manifolds}{33}{part.3}}
\newlabel{part:7d}{{III}{33}{$N=1$ super Yang Mills in 7d on Sasaki-Einstein manifolds}{part.3}{}}
\citation{Yang:1954ek}
\@writefile{toc}{\contentsline {chapter}{\numberline {7}Instantons}{35}{chapter.7}}
\newlabel{sec:instantons}{{7}{35}{Instantons}{chapter.7}{}}
\@writefile{toc}{\contentsline {section}{\numberline {7.1}4d case}{35}{section.7.1}}
\newlabel{eq:4dymaction}{{7.1}{35}{4d case}{equation.7.1.1}{}}
\newlabel{eq:4dprojector}{{7.4}{35}{4d case}{equation.7.1.4}{}}
\newlabel{eq:4dFdecomposition}{{7.5}{35}{4d case}{equation.7.1.5}{}}
\@writefile{toc}{\contentsline {section}{\numberline {7.2}7d case}{36}{section.7.2}}
\newlabel{sec:contactinstanton}{{7.2}{36}{7d case}{section.7.2}{}}
\citation{Kallen:2012cs}
\citation{Baraglia}
\newlabel{eq:7ddecomposition}{{7.14}{37}{7d case}{equation.7.2.14}{}}
\newlabel{eq:contactinstanton}{{7.18}{37}{7d case}{equation.7.2.18}{}}
\citation{Blau,BoyerGalicki,Bar}
\citation{Bar}
\citation{Rocen:2018xwo}
\citation{Iakovidis:2020znp}
\@writefile{toc}{\contentsline {chapter}{\numberline {8}Killing spinors}{38}{chapter.8}}
\newlabel{sec:killingspinorsgeneral}{{8}{38}{Killing spinors}{chapter.8}{}}
\newlabel{eq:killingspinoreqgeneral}{{8.1}{38}{Killing spinors}{equation.8.0.1}{}}
\citation{Friedrich:1997}
\citation{Acharya:1997jn}
\citation{Prins:2018hjc}
\citation{Minahan:2015jta}
\citation{BrinkSS}
\citation{Blau}
\citation{Berkovits:1993hx}
\citation{Fujitsuka:2012wg}
\@writefile{toc}{\contentsline {chapter}{\numberline {9}7 Dimensions and localization}{40}{chapter.9}}
\newlabel{sec:superymin7d}{{9}{40}{7 Dimensions and localization}{chapter.9}{}}
\newlabel{killcond}{{9.4}{40}{7 Dimensions and localization}{equation.9.0.4}{}}
\citation{Pestun:2007rz,Minahan:2015jta}
\citation{Pestun:2007rz,Minahan:2015jta}
\newlabel{purespinordef}{{9.5}{41}{7 Dimensions and localization}{equation.9.0.5}{}}
\newlabel{eq:vdef}{{9.7}{41}{7 Dimensions and localization}{equation.9.0.7}{}}
\newlabel{susytransoff}{{9.8}{41}{7 Dimensions and localization}{equation.9.0.8}{}}
\newlabel{7DactionOffShell}{{9.10}{41}{7 Dimensions and localization}{equation.9.0.10}{}}
\citation{Pestun:2007rz}
\citation{Minahan:2017wkz}
\@writefile{lot}{\contentsline {table}{\numberline {9.1}{\ignorespaces The bosonic and fermionic fields of the cohomological complex. $(X,X')$-pairs of bosons and fermions appearing in the transformations \textup  {\hbox {\mathsurround \z@ \normalfont  (\ignorespaces \ref  {cohomoltranf1}\unskip \@@italiccorr )}} are written on the same line. Note that we have suppressed the Lie algebra dependence. This table is part of a table of the map in Paper \ref  {lbl:paper1}.}}{43}{equation.9.0.21}}
\newlabel{table:cohomologicalcomplex}{{9.1}{43}{7 Dimensions and localization}{equation.9.0.21}{}}
\newlabel{cohomoltranf1}{{9.22}{43}{7 Dimensions and localization}{equation.9.0.22}{}}
\@writefile{toc}{\contentsline {section}{\numberline {9.1}Localization technique}{43}{section.9.1}}
\newlabel{sec:7dlocalizationpart}{{9.1}{43}{Localization technique}{section.9.1}{}}
\citation{Schmude:2014lfa}
\citation{Schmude:2013dua,Eager:2012hx}
\citation{Sparks:2010sn}
\citation{KohnRossi}
\citation{Qiu:2014oqa}
\citation{Qiu:2016dyj}
\newlabel{partfun1}{{9.29}{44}{Localization technique}{equation.9.1.29}{}}
\newlabel{partfun2}{{9.30}{44}{Localization technique}{equation.9.1.30}{}}
\citation{Sparks:2010sn}
\citation{Winding:2016wpw,Narukawa}
\newlabel{superdeterminant}{{9.31}{45}{Localization technique}{equation.9.1.31}{}}
\newlabel{eq:fullgeneralpartitionfunction7d}{{9.32}{45}{Localization technique}{equation.9.1.32}{}}
\citation{Narukawa}
\citation{Narukawa}
\@writefile{toc}{\contentsline {section}{\numberline {9.2}$S^7$ and factorization}{46}{section.9.2}}
\@writefile{lof}{\contentsline {figure}{\numberline {9.1}{\ignorespaces This figure presents the $S^1$ fibration of $S^7$ which can be visualized by performing a cut on the polytope that gives four pieces of $S^1\times \mathbb  C^3$.}}{46}{equation.9.2.36}}
\newlabel{figure2}{{9.1}{46}{$S^7$ and factorization}{equation.9.2.36}{}}
\newlabel{factorS7}{{9.37}{46}{$S^7$ and factorization}{equation.9.2.37}{}}
\citation{Nekrasov2008}
\citation{Qiu:2013aga,Qiu:2014oqa}
\newlabel{full-PF-S7}{{9.38}{47}{$S^7$ and factorization}{equation.9.2.38}{}}
\@writefile{lof}{\contentsline {figure}{\numberline {9.2}{\ignorespaces This figure presents the $S^1$ fibration of $S^7$ which can be visualized by performing a cut on the polytope that gives locally two copies of $S^3\times \mathbb  C^2$.}}{47}{equation.9.2.38}}
\newlabel{figure3}{{9.2}{47}{$S^7$ and factorization}{equation.9.2.38}{}}
\newlabel{eq:s4tos2s}{{9.39}{48}{$S^7$ and factorization}{equation.9.2.39}{}}
\citation{Beem:2013sza}
\citation{Beem:2013sza}
\citation{Chester:2014mea}
\citation{Dedushenko:2016jxl}
\@writefile{toc}{\contentsline {part}{Part~IV:~{N=4} in 3d mapped to 1d TQM}{49}{part.4}}
\newlabel{part:twistedoperators}{{IV}{49}{{N=4} in 3d mapped to 1d TQM}{part.4}{}}
\citation{Beem:2013sza}
\citation{Beem:2013sza}
\citation{Dolan:2002zh}
\citation{Beem:2013sza}
\@writefile{toc}{\contentsline {chapter}{\numberline {10}SCFT}{51}{chapter.10}}
\newlabel{sec:schurscft}{{10}{51}{SCFT}{chapter.10}{}}
\@writefile{toc}{\contentsline {section}{\numberline {10.1}4d $\mathcal  {N}=2$}{51}{section.10.1}}
\newlabel{sec:rastelli4d}{{10.1}{51}{4d $\mathcal {N}=2$}{section.10.1}{}}
\newlabel{centralcharge4d}{{10.8}{52}{4d $\mathcal {N}=2$}{equation.10.1.8}{}}
\citation{Kinney:2005ej,Gadde:2011ik,Gadde:2011uv}
\citation{Beem:2013sza}
\citation{Beem:2016cbd}
\newlabel{cohomology4d}{{10.9}{53}{4d $\mathcal {N}=2$}{equation.10.1.9}{}}
\newlabel{4dspinrep}{{10.12}{53}{4d $\mathcal {N}=2$}{equation.10.1.12}{}}
\@writefile{toc}{\contentsline {section}{\numberline {10.2}3d $\mathcal  {N}=4$}{53}{section.10.2}}
\citation{Chester:2014mea}
\citation{Beem:2016cbd}
\newlabel{commutatorqmath}{{10.15}{54}{3d $\mathcal {N}=4$}{equation.10.2.15}{}}
\citation{Dedushenko:2016jxl}
\@writefile{toc}{\contentsline {chapter}{\numberline {11}$S^2\times S^1$ Hypermultiplet}{56}{chapter.11}}
\newlabel{section:s2s1}{{11}{56}{$S^2\times S^1$ Hypermultiplet}{chapter.11}{}}
\newlabel{eq:metrics2s1}{{11.1}{56}{$S^2\times S^1$ Hypermultiplet}{equation.11.0.1}{}}
\@writefile{lof}{\contentsline {figure}{\numberline {11.1}{\ignorespaces The choice of coordinates on $S^2\times S^1$, seen also in Paper \ref  {lbl:paper2}.}}{56}{equation.11.0.1}}
\newlabel{FIG:s2s1_coordinates}{{11.1}{56}{$S^2\times S^1$ Hypermultiplet}{equation.11.0.1}{}}
\newlabel{eq:susycharges2s1}{{11.7}{57}{$S^2\times S^1$ Hypermultiplet}{equation.11.0.7}{}}
\@writefile{lof}{\contentsline {figure}{\numberline {11.2}{\ignorespaces The fixed point locus $S^2 \times S^1$ is the disjoint union of two copies of $S^1$ located at the poles of the two-sphere. (The figure is part of Paper \ref  {lbl:paper2})}}{57}{equation.11.0.7}}
\newlabel{Fig:s2s1loc}{{11.2}{57}{$S^2\times S^1$ Hypermultiplet}{equation.11.0.7}{}}
\newlabel{eq:bpsopss2s1}{{11.8}{57}{$S^2\times S^1$ Hypermultiplet}{equation.11.0.8}{}}
\citation{Dedushenko:2016jxl}
\citation{Pan:2017zie,Mezei:2018url,Pan:2019bor,Bonetti:2016nma,Costello:2018txb}
\@writefile{toc}{\contentsline {chapter}{\numberline {12}Partial localization}{59}{chapter.12}}
\newlabel{sec:partialloc}{{12}{59}{Partial localization}{chapter.12}{}}
\newlabel{eq:partialloc}{{12.11}{60}{Partial localization}{equation.12.0.11}{}}
\newlabel{eq:a1s2s1}{{12.13}{60}{Partial localization}{equation.12.0.13}{}}
\@writefile{toc}{\contentsline {section}{\numberline {12.1}$S^2\times S^1$}{60}{section.12.1}}
\citation{Witten:2010zr}
\newlabel{eq:finalactiontopqm}{{12.18}{61}{$S^2\times S^1$}{equation.12.1.18}{}}
\citation{Witten:1988ze}
\@writefile{toc}{\contentsline {part}{Part~V:~$N=2$ in 4d and equivariant twisting}{63}{part.5}}
\newlabel{part:equivtwisting}{{V}{63}{$N=2$ in 4d and equivariant twisting}{part.5}{}}
\citation{Labastida:1995bs}
\citation{Witten:1988ze}
\citation{Labastida:1995bs}
\@writefile{toc}{\contentsline {chapter}{\numberline {13}Topological twisting}{65}{chapter.13}}
\newlabel{sec:topoltwisting}{{13}{65}{Topological twisting}{chapter.13}{}}
\@writefile{toc}{\contentsline {section}{\numberline {13.1}Review of topological field theories}{65}{section.13.1}}
\citation{Witten:1988ze}
\citation{Beem:2013sza}
\newlabel{eq:energymomentumtensor}{{13.4}{66}{Review of topological field theories}{equation.13.1.4}{}}
\newlabel{eq:energymomentumargument}{{13.5}{66}{Review of topological field theories}{equation.13.1.5}{}}
\@writefile{toc}{\contentsline {section}{\numberline {13.2}Witten's $\mathcal  {N}=2$ twisting}{66}{section.13.2}}
\citation{Witten:1988ze}
\citation{Donaldson:1990kn}
\citation{Festuccia:2018rew}
\citation{Moore:1998et}
\citation{Nekrasov:2002qd}
\citation{Festuccia:2018rew}
\citation{Festuccia2011}
\citation{Festuccia:2018rew}
\@writefile{toc}{\contentsline {chapter}{\numberline {14}Pestunization}{68}{chapter.14}}
\newlabel{sec:pestunization}{{14}{68}{Pestunization}{chapter.14}{}}
\@writefile{toc}{\contentsline {section}{\numberline {14.1}N=2 supersymmetric theories}{68}{section.14.1}}
\citation{Festuccia:2018rew}
\citation{Festuccia:2018rew}
\newlabel{eq:killingspinorscomplexconjugate}{{14.1}{69}{N=2 supersymmetric theories}{equation.14.1.1}{}}
\newlabel{eq:stildesdef}{{14.2}{69}{N=2 supersymmetric theories}{equation.14.1.2}{}}
\newlabel{eq:killingvectordeftwist}{{14.3}{69}{N=2 supersymmetric theories}{equation.14.1.3}{}}
\@writefile{toc}{\contentsline {subsection}{\numberline {14.1.1}Global Spinors}{69}{subsection.14.1.1}}
\newlabel{sec:globalspinors}{{14.1.1}{69}{Global Spinors}{subsection.14.1.1}{}}
\citation{Festuccia:2018rew}
\newlabel{eq:auxiliaryspinorsconstrains}{{14.4}{70}{Global Spinors}{equation.14.1.4}{}}
\newlabel{eq:regularkillings}{{14.6}{70}{Global Spinors}{equation.14.1.6}{}}
\newlabel{eq:regularauxilarys}{{14.7}{70}{Global Spinors}{equation.14.1.7}{}}
\citation{Festuccia:2018rew}
\@writefile{toc}{\contentsline {subsection}{\numberline {14.1.2}Vector Multiplet}{71}{subsection.14.1.2}}
\@writefile{toc}{\contentsline {subsubsection}{Original multiplet}{71}{section*.6}}
\newlabel{eq:delta2vectororiginaltwisting}{{14.16}{71}{Original multiplet}{equation.14.1.16}{}}
\@writefile{toc}{\contentsline {subsubsection}{Vector Twisting}{72}{section*.7}}
\newlabel{defpp}{{14.19}{72}{Vector Twisting}{equation.14.1.19}{}}
\newlabel{eq:gaugetransfdef}{{14.25}{72}{Vector Twisting}{equation.14.1.25}{}}
\@writefile{toc}{\contentsline {subsection}{\numberline {14.1.3}Hypermultiplet}{73}{subsection.14.1.3}}
\newlabel{sec:twistinghyper}{{14.1.3}{73}{Hypermultiplet}{subsection.14.1.3}{}}
\newlabel{eq:deltasquaretwistingoriginal}{{14.28}{73}{Hypermultiplet}{equation.14.1.28}{}}
\citation{Hama:2011ea}
\@writefile{toc}{\contentsline {subsubsection}{Twisting projectors}{74}{section*.8}}
\newlabel{eq:Zdef}{{14.33}{74}{Twisting projectors}{equation.14.1.33}{}}
\newlabel{defotz}{{14.34}{74}{Twisting projectors}{equation.14.1.34}{}}
\newlabel{eq:dirackilling}{{14.35}{74}{Twisting projectors}{equation.14.1.35}{}}
\newlabel{eq:auxiliarydirac}{{14.36}{75}{Twisting projectors}{equation.14.1.36}{}}
\newlabel{eq:qfrakdef}{{14.37}{75}{Twisting projectors}{equation.14.1.37}{}}
\newlabel{eq:bfrakdef}{{14.39}{75}{Twisting projectors}{equation.14.1.39}{}}
\newlabel{eq:projectionrelations}{{14.41}{75}{Twisting projectors}{equation.14.1.41}{}}
\newlabel{eq:qcvariations}{{14.42}{75}{Twisting projectors}{equation.14.1.42}{}}
\citation{Pestun:2007rz}
\citation{Hama:2011ea}
\newlabel{eq:bhvariations}{{14.43}{76}{Twisting projectors}{equation.14.1.43}{}}
\newlabel{eq:delta2equiv}{{14.44}{76}{Twisting projectors}{equation.14.1.44}{}}
\@writefile{toc}{\contentsline {subsection}{\numberline {14.1.4}Localization of the gauged hypermultiplet}{76}{subsection.14.1.4}}
\newlabel{sec:twistinglocalization}{{14.1.4}{76}{Localization of the gauged hypermultiplet}{subsection.14.1.4}{}}
\citation{Pestun:2007rz}
\newlabel{eq: indexformula}{{14.56}{77}{Localization of the gauged hypermultiplet}{equation.14.1.56}{}}
\citation{Pestun:2007rz}
\newlabel{eq: locppkv}{{14.57}{78}{Localization of the gauged hypermultiplet}{equation.14.1.57}{}}
\citation{Festuccia:2016gul,Qiu:2013aga,Qiu:2013pta,Qiu:2014cha}
\@writefile{toc}{\contentsline {chapter}{Svensk sammanfattning}{80}{section*.9}}
\bibstyle{JHEP}
\bibdata{References}
\bibcite{Aad:2012tfa}{1}
\bibcite{Higgs:1964pj}{2}
\bibcite{Jaffe:2000ne}{3}
\bibcite{Rattazzi:2008pe}{4}
\bibcite{Gervais:1971ji}{5}
\bibcite{Golfand:1971iw}{6}
\bibcite{tHooft:1979rat}{7}
\bibcite{Witten:1981nf}{8}
\bibcite{Atiyah:1984px}{9}
\bibcite{berline1982classes}{10}
\bibcite{Witten:1982im}{11}
\bibcite{Witten:1988ze}{12}
\bibcite{Nekrasov2003a}{13}
\bibcite{Losev:1997hx}{14}
\bibcite{Losev:1997tp}{15}
\bibcite{Moore:1997dj}{16}
\bibcite{Lossev:1997bz}{17}
\bibcite{Pestun:2007rz}{18}
\bibcite{Pestun:2016zxk}{19}
\bibcite{Hama:2012bg}{20}
\@writefile{toc}{\contentsline {chapter}{References}{82}{section*.10}}
\bibcite{Pestun:2014mja}{21}
\bibcite{Minahan:2015jta}{22}
\bibcite{Kapustin:2009kz}{23}
\bibcite{Benini:2012ui}{24}
\bibcite{Doroud:2012xw}{25}
\bibcite{Kallen:2012va}{26}
\bibcite{Kallen:2012cs}{27}
\bibcite{Kim:2012ava}{28}
\bibcite{Hama:2011ea}{29}
\bibcite{Minahan:2015any}{30}
\bibcite{Qiu:2013pta}{31}
\bibcite{Rocen:2018xwo}{32}
\bibcite{Iakovidis:2020znp}{33}
\bibcite{Dedushenko:2016jxl}{34}
\bibcite{Pan:2017zie}{35}
\bibcite{Beem:2013sza}{36}
\bibcite{Donaldson:1990kn}{37}
\bibcite{Festuccia:2018rew}{38}
\bibcite{Nakahara}{39}
\bibcite{dasilva}{40}
\bibcite{Schmude:2014lfa}{41}
\bibcite{Sparks:2010sn}{42}
\bibcite{Atiyah82}{43}
\bibcite{Martelli:2008rt}{44}
\bibcite{fulton}{45}
\bibcite{Blair2010}{46}
\bibcite{Geiges}{47}
\bibcite{etnyre}{48}
\bibcite{Winding:2016wpw}{49}
\bibcite{Cartan}{50}
\bibcite{Pestun:2016qko}{51}
\bibcite{Cremonesi:2014dva}{52}
\bibcite{Pestun:2016jze}{53}
\bibcite{Gorantis:2017vzz}{54}
\bibcite{Qiu:2014oqa}{55}
\bibcite{Yang:1954ek}{56}
\bibcite{Baraglia}{57}
\bibcite{Blau}{58}
\bibcite{BoyerGalicki}{59}
\bibcite{Bar}{60}
\bibcite{Friedrich:1997}{61}
\bibcite{Acharya:1997jn}{62}
\bibcite{Prins:2018hjc}{63}
\bibcite{BrinkSS}{64}
\bibcite{Berkovits:1993hx}{65}
\bibcite{Fujitsuka:2012wg}{66}
\bibcite{Minahan:2017wkz}{67}
\bibcite{Schmude:2013dua}{68}
\bibcite{Eager:2012hx}{69}
\bibcite{KohnRossi}{70}
\bibcite{Qiu:2016dyj}{71}
\bibcite{Narukawa}{72}
\bibcite{Nekrasov2008}{73}
\bibcite{Qiu:2013aga}{74}
\bibcite{Chester:2014mea}{75}
\bibcite{Dolan:2002zh}{76}
\bibcite{Kinney:2005ej}{77}
\bibcite{Gadde:2011ik}{78}
\bibcite{Gadde:2011uv}{79}
\bibcite{Beem:2016cbd}{80}
\bibcite{Mezei:2018url}{81}
\bibcite{Pan:2019bor}{82}
\bibcite{Bonetti:2016nma}{83}
\bibcite{Costello:2018txb}{84}
\bibcite{Witten:2010zr}{85}
\bibcite{Labastida:1995bs}{86}
\bibcite{Moore:1998et}{87}
\bibcite{Nekrasov:2002qd}{88}
\bibcite{Festuccia2011}{89}
\bibcite{Festuccia:2016gul}{90}
\bibcite{Qiu:2014cha}{91}
\gdef\@pagecount{86}
