\BOOKMARK [0][-]{lop.0}{List of papers}{}% 1
\BOOKMARK [0][-]{chapter.1}{1 Introduction}{}% 2
\BOOKMARK [1][-]{section.1.1}{1.1 Thesis outline}{chapter.1}% 3
\BOOKMARK [-1][-]{part.1}{Part I: Review of geometry}{}% 4
\BOOKMARK [0][-]{chapter.2}{2 Symplectic and toric geometry}{part.1}% 5
\BOOKMARK [0][-]{chapter.3}{3 Contact geometry}{part.1}% 6
\BOOKMARK [1][-]{section.3.1}{3.1 Toric Sasaki-Einstein manifolds}{chapter.3}% 7
\BOOKMARK [0][-]{chapter.4}{4 Equivariant cohomology}{part.1}% 8
\BOOKMARK [-1][-]{part.2}{Part II: Localization technique}{}% 9
\BOOKMARK [0][-]{chapter.5}{5 Finite dimensional integrals}{part.2}% 10
\BOOKMARK [0][-]{chapter.6}{6 Infinite dimensional integrals}{part.2}% 11
\BOOKMARK [-1][-]{part.3}{Part III: N=1 super Yang Mills in 7d on Sasaki-Einstein manifolds}{}% 12
\BOOKMARK [0][-]{chapter.7}{7 Instantons}{part.3}% 13
\BOOKMARK [1][-]{section.7.1}{7.1 4d case}{chapter.7}% 14
\BOOKMARK [1][-]{section.7.2}{7.2 7d case}{chapter.7}% 15
\BOOKMARK [0][-]{chapter.8}{8 Killing spinors}{part.3}% 16
\BOOKMARK [0][-]{chapter.9}{9 7 Dimensions and localization}{part.3}% 17
\BOOKMARK [1][-]{section.9.1}{9.1 Localization technique}{chapter.9}% 18
\BOOKMARK [1][-]{section.9.2}{9.2 S7 and factorization}{chapter.9}% 19
\BOOKMARK [-1][-]{part.4}{Part IV: N=4 in 3d mapped to 1d TQM}{}% 20
\BOOKMARK [0][-]{chapter.10}{10 SCFT}{part.4}% 21
\BOOKMARK [1][-]{section.10.1}{10.1 4d N=2}{chapter.10}% 22
\BOOKMARK [1][-]{section.10.2}{10.2 3d N=4}{chapter.10}% 23
\BOOKMARK [0][-]{chapter.11}{11 S2S1 Hypermultiplet}{part.4}% 24
\BOOKMARK [0][-]{chapter.12}{12 Partial localization}{part.4}% 25
\BOOKMARK [1][-]{section.12.1}{12.1 S2S1}{chapter.12}% 26
\BOOKMARK [-1][-]{part.5}{Part V: N=2 in 4d and equivariant twisting}{}% 27
\BOOKMARK [0][-]{chapter.13}{13 Topological twisting}{part.5}% 28
\BOOKMARK [1][-]{section.13.1}{13.1 Review of topological field theories}{chapter.13}% 29
\BOOKMARK [1][-]{section.13.2}{13.2 Witten's N=2 twisting}{chapter.13}% 30
\BOOKMARK [0][-]{chapter.14}{14 Pestunization}{part.5}% 31
\BOOKMARK [1][-]{section.14.1}{14.1 N=2 supersymmetric theories}{chapter.14}% 32
\BOOKMARK [0][-]{section*.9}{Svensk sammanfattning}{part.5}% 33
\BOOKMARK [-1][-]{section*.10}{References}{}% 34
